File1;File2
https://reqres.in/api/users/3;https://reqres.in/api/users/2
https://reqres.in/api/users/1;https://reqres.in/api/users?page=3
https://reqres.in/api/users/2;https://reqres.in/api/users/2
https://reqres.in/api/users?page=2;https://reqres.in/api/users?page=2
https://reqres.in/api/users?page=1;https://reqres.in/api/users?page=1