<?xml version="1.0" encoding="UTF-8"?>
<DataFileEntity>
   <description></description>
   <name>requesturl</name>
   <tag></tag>
   <containsHeaders>true</containsHeaders>
   <csvSeperator>SEMICOLON</csvSeperator>
   <dataFileGUID>f78f3a34-7764-46d9-8dac-8bf4612f9933</dataFileGUID>
   <dataSourceUrl>/Users/najmi/Katalon Studio/SDET API/requesturl.csv</dataSourceUrl>
   <driver>CSV</driver>
   <isInternalPath>false</isInternalPath>
   <query></query>
   <secureUserAccount>false</secureUserAccount>
   <sheetName></sheetName>
   <usingGlobalDBSetting>false</usingGlobalDBSetting>
</DataFileEntity>
